{
    "joints": {
        "id": "Neck",
        "in": [
            0.428681,
            0.116403
        ],
        "out": [
            [
                0.485912,
                0.844015,
                "ANY"
            ],
            [
                0.190847,
                0.813231,
                "ANY"
            ],
            [
                0.810627,
                0.91491,
                "ANY"
            ]
        ],
        "texture": 282
    },
    "textures": [
        {
            "component": "Torso",
            "id": 282
        }
    ]
}